DDLab6_2017/CLA_16bit/lab6_16bit.vcd
$date
	Mon Apr 17 03:53:35 2017
$end
$version
	Icarus Verilog
$end
$timescale
	1ps
$end
$scope module testbench $end
$var wire 16 ! s [15:0] $end
$var wire 1 " cout $end
$var reg 1 # CLK $end
$var reg 1 $ cin $end
$var reg 17 % correct_ans [16:0] $end
$var reg 6 & counter [5:0] $end
$var reg 6 ' ct [5:0] $end
$var reg 1 ( error $end
$var reg 16 ) in_a [15:0] $end
$var reg 16 * in_b [15:0] $end
$var reg 1 + reset $end
$var reg 5 , successful_count [4:0] $end
$scope module DDLab6 $end
$var wire 16 - a [15:0] $end
$var wire 16 . b [15:0] $end
$var wire 1 $ cin $end
$var wire 16 / s [15:0] $end
$var wire 16 0 p [15:0] $end
$var wire 4 1 gP [3:0] $end
$var wire 4 2 gG [3:0] $end
$var wire 16 3 g [15:0] $end
$var wire 1 " cout $end
$var wire 4 4 c_4_8_12 [3:0] $end
$var wire 16 5 c [15:0] $end
$scope module carry_gen_1 $end
$var wire 1 $ cin $end
$var wire 1 6 cout $end
$var wire 4 7 g [3:0] $end
$var wire 1 8 gG $end
$var wire 1 9 gP $end
$var wire 4 : p [3:0] $end
$var wire 4 ; c [3:0] $end
$upscope $end
$scope module carry_gen_2 $end
$var wire 1 < cin $end
$var wire 1 = cout $end
$var wire 4 > g [3:0] $end
$var wire 1 ? gG $end
$var wire 1 @ gP $end
$var wire 4 A p [3:0] $end
$var wire 4 B c [3:0] $end
$upscope $end
$scope module carry_gen_3 $end
$var wire 1 C cin $end
$var wire 1 D cout $end
$var wire 4 E g [3:0] $end
$var wire 1 F gG $end
$var wire 1 G gP $end
$var wire 4 H p [3:0] $end
$var wire 4 I c [3:0] $end
$upscope $end
$scope module carry_gen_4 $end
$var wire 1 J cin $end
$var wire 1 K cout $end
$var wire 4 L g [3:0] $end
$var wire 1 M gG $end
$var wire 1 N gP $end
$var wire 4 O p [3:0] $end
$var wire 4 P c [3:0] $end
$upscope $end
$scope module carry_gen_5 $end
$var wire 1 $ cin $end
$var wire 1 " cout $end
$var wire 4 Q g [3:0] $end
$var wire 1 R gG $end
$var wire 1 S gP $end
$var wire 4 T p [3:0] $end
$var wire 4 U c [3:0] $end
$upscope $end
$scope module gp1 $end
$var wire 4 V a [3:0] $end
$var wire 4 W b [3:0] $end
$var wire 4 X p [3:0] $end
$var wire 4 Y g [3:0] $end
$upscope $end
$scope module gp2 $end
$var wire 4 Z a [3:0] $end
$var wire 4 [ b [3:0] $end
$var wire 4 \ p [3:0] $end
$var wire 4 ] g [3:0] $end
$upscope $end
$scope module gp3 $end
$var wire 4 ^ a [3:0] $end
$var wire 4 _ b [3:0] $end
$var wire 4 ` p [3:0] $end
$var wire 4 a g [3:0] $end
$upscope $end
$scope module gp4 $end
$var wire 4 b a [3:0] $end
$var wire 4 c b [3:0] $end
$var wire 4 d p [3:0] $end
$var wire 4 e g [3:0] $end
$upscope $end
$scope module sum_11_8 $end
$var wire 4 f a [3:0] $end
$var wire 4 g b [3:0] $end
$var wire 4 h c [3:0] $end
$var wire 4 i s [3:0] $end
$upscope $end
$scope module sum_15_12 $end
$var wire 4 j a [3:0] $end
$var wire 4 k b [3:0] $end
$var wire 4 l c [3:0] $end
$var wire 4 m s [3:0] $end
$upscope $end
$scope module sum_3_0 $end
$var wire 4 n a [3:0] $end
$var wire 4 o b [3:0] $end
$var wire 4 p c [3:0] $end
$var wire 4 q s [3:0] $end
$upscope $end
$scope module sum_7_4 $end
$var wire 4 r a [3:0] $end
$var wire 4 s b [3:0] $end
$var wire 4 t c [3:0] $end
$var wire 4 u s [3:0] $end
$upscope $end
$upscope $end
$upscope $end
$enddefinitions $end
#0
$dumpvars
b0 u
b0 t
b0 s
b0 r
b0 q
b0 p
b0 o
b0 n
b0 m
b0 l
b0 k
b0 j
b0 i
b0 h
b0 g
b0 f
b0 e
b0 d
b0 c
b0 b
b0 a
b0 `
b0 _
b0 ^
b0 ]
b0 \
b0 [
b0 Z
b0 Y
b0 X
b0 W
b0 V
b0 U
b0 T
0S
0R
b0 Q
b0 P
b0 O
0N
0M
b0 L
0K
0J
b0 I
b0 H
0G
0F
b0 E
0D
0C
b0 B
b0 A
0@
0?
b0 >
0=
0<
b0 ;
b0 :
09
08
b0 7
06
b0 5
b0 4
b0 3
b0 2
b0 1
b0 0
b0 /
b0 .
b0 -
b0 ,
x+
b0 *
b0 )
x(
b0 '
bx &
bx %
0$
0#
0"
b0 !
$end
#10000
1J
1D
b100 2
b100 Q
1F
b100 1
b100 T
1G
b1110 h
b1111 l
b1110 I
b1111 P
b100 i
b100 7
b110 :
b1011 A
b101 E
b1111 H
b1 L
b111 O
b1011 u
b1001 m
b1001010010111011 !
b1001010010111011 /
b1011 q
b100 Y
b110 X
b1011 \
b101 a
b1111 `
b1010100000100 3
b1 e
b111111110110110 0
b111 d
b1001 p
b110 W
b1001 [
b1111 _
b101 c
b110 o
b1001 s
b1111 g
b101 k
b100 V
b10 Z
b101 ^
b11 b
b100 n
b10 r
b101 f
b11 j
b1 '
0(
b0 %
b1111111000001001 5
b1001 ;
b1001 4
b1001 U
1$
b101111110010110 *
b101111110010110 .
b11010100100100 )
b11010100100100 -
b0 &
1#
1+
#20000
0#
#30000
b1 &
b1001010010111011 %
1#
0+
#40000
0#
#50000
b10 &
1#
#60000
0#
#70000
b11 &
1#
#80000
0#
#90000
b100 &
1#
#100000
0#
#110000
b101 &
b1 ,
1#
#120000
0#
#130000
b110 &
1#
#140000
0#
#150000
b111 &
1#
#160000
0#
#170000
b1000 &
1#
#180000
0#
#190000
b1001 &
1#
#200000
0#
#210000
b1010 &
1#
#220000
0#
#230000
b1011 &
1#
#240000
0#
#250000
b1100 &
1#
#260000
0#
#270000
b1101 &
1#
#280000
0#
#290000
b1110 &
1#
#300000
0#
#310000
b1111 &
1#
#320000
0#
#330000
b10000 &
1#
#340000
0#
#350000
b10001 &
1#
#360000
0#
#370000
b10010 &
1#
#380000
0#
#390000
b10011 &
1#
#400000
0#
#410000
b10100 &
1#
#420000
0#
#430000
b10101 &
1#
#440000
0#
#450000
b10110 &
1#
#460000
0#
#470000
b10111 &
1#
#480000
0#
#490000
b11000 &
1#
#500000
0#
#510000
b11001 &
1#
#520000
0#
#530000
0J
b1 4
b1 U
0D
b0 2
b0 Q
0F
b0 l
b111 p
b0 P
b111 ;
b0 h
b111 5
b0 I
b0 1
b0 T
0G
b0 L
b1110 i
b0 7
b11 :
b1110 A
b0 E
b1110 H
b101 O
b100 q
b1110 u
b101111011100100 !
b101111011100100 /
b101 m
b0 e
b0 Y
b11 X
b1110 \
b0 3
b0 a
b1110 `
b101111011100011 0
b101 d
b0 W
b1000 [
b1000 _
b0 c
b0 o
b1000 s
b1000 g
b0 k
b11 V
b110 Z
b110 ^
b101 b
b11 n
b110 r
b110 f
b101 j
b10 '
b0 %
b100010000000 *
b100010000000 .
b101011001100011 )
b101011001100011 -
b0 &
1#
1+
#540000
0#
#550000
b1 &
b101111011100100 %
1#
0+
#560000
0#
#570000
b10 &
1#
#580000
0#
#590000
b11 &
1#
#600000
0#
#610000
b100 &
1#
#620000
0#
#630000
b101 &
b10 ,
1#
#640000
0#
#650000
b110 &
1#
#660000
0#
#670000
b111 &
1#
#680000
0#
#690000
b1000 &
1#
#700000
0#
#710000
b1001 &
1#
#720000
0#
#730000
b1010 &
1#
#740000
0#
#750000
b1011 &
1#
#760000
0#
#770000
b1100 &
1#
#780000
0#
#790000
b1101 &
1#
#800000
0#
#810000
b1110 &
1#
#820000
0#
#830000
b1111 &
1#
#840000
0#
#850000
b10000 &
1#
#860000
0#
#870000
b10001 &
1#
#880000
0#
#890000
b10010 &
1#
#900000
0#
#910000
b10011 &
1#
#920000
0#
#930000
b10100 &
1#
#940000
0#
#950000
b10101 &
1#
#960000
0#
#970000
b10110 &
1#
#980000
0#
#990000
b10111 &
1#
#1000000
0#
#1010000
b11000 &
1#
#1020000
0#
#1030000
b11001 &
1#
#1040000
0#
#1050000
b1111 p
b1000 h
b1111 ;
b100000001111 5
b1000 I
b100 E
b111 :
b100 H
b1110 O
b1000 q
b1000 i
b1110100011101000 !
b1110100011101000 /
b1110 m
b10000000000 3
b100 a
b111 X
b100 `
b1110010011100111 0
b1110 d
b10 W
b100 _
b110 c
b10 o
b100 g
b110 k
b101 V
b100 ^
b1000 b
b101 n
b100 f
b1000 j
b11 '
b0 %
b110010010000010 *
b110010010000010 .
b1000010001100101 )
b1000010001100101 -
b0 &
1#
1+
#1060000
0#
#1070000
b1 &
b1110100011101000 %
1#
0+
#1080000
0#
#1090000
b10 &
1#
#1100000
0#
#1110000
b11 &
1#
#1120000
0#
#1130000
b100 &
1#
#1140000
0#
#1150000
b101 &
b11 ,
1#
#1160000
0#
#1170000
b110 &
1#
#1180000
0#
#1190000
b111 &
1#
#1200000
0#
#1210000
b1000 &
1#
#1220000
0#
#1230000
b1001 &
1#
#1240000
0#
#1250000
b1010 &
1#
#1260000
0#
#1270000
b1011 &
1#
#1280000
0#
#1290000
b1100 &
1#
#1300000
0#
#1310000
b1101 &
1#
#1320000
0#
#1330000
b1110 &
1#
#1340000
0#
#1350000
b1111 &
1#
#1360000
0#
#1370000
b10000 &
1#
#1380000
0#
#1390000
b10001 &
1#
#1400000
0#
#1410000
b10010 &
1#
#1420000
0#
#1430000
b10011 &
1#
#1440000
0#
#1450000
b10100 &
1#
#1460000
0#
#1470000
b10101 &
1#
#1480000
0#
#1490000
b10110 &
1#
#1500000
0#
#1510000
b10111 &
1#
#1520000
0#
#1530000
b11000 &
1#
#1540000
0#
#1550000
b11001 &
1#
#1560000
0#
#1570000
1J
1"
1R
b111 t
b111 B
1<
b1011 4
b1011 U
1D
1K
16
1F
1M
b1001 l
b1101 2
b1101 Q
18
19
1G
b1001 P
b1110 h
b101 1
b101 T
0@
b1001111001111111 5
b1110 I
b1100 q
b1100 7
b1111 :
b1011 A
b101 E
b1111 H
b100 L
b1100 u
b100 i
b11010011001100 !
b11010011001100 /
b11 m
b1100 Y
b1111 X
b1011 \
b101 a
b1110111110111111 0
b1111 `
b100010100001100 3
b100 e
b1110 W
b1011 [
b111 _
b1110 o
b1011 s
b111 g
b1101 V
b0 Z
b1101 ^
b1100 b
b1101 n
b0 r
b1101 f
b1100 j
b100 '
b0 %
b110011110111110 *
b110011110111110 .
b1100110100001101 )
b1100110100001101 -
b0 &
1#
1+
#1580000
0#
#1590000
b1 &
b10011010011001100 %
1#
0+
#1600000
0#
#1610000
b10 &
1#
#1620000
0#
#1630000
b11 &
1#
#1640000
0#
#1650000
b100 &
1#
#1660000
0#
#1670000
b101 &
b100 ,
1#
#1680000
0#
#1690000
b110 &
1#
#1700000
0#
#1710000
b111 &
1#
#1720000
0#
#1730000
b1000 &
1#
#1740000
0#
#1750000
b1001 &
1#
#1760000
0#
#1770000
b1010 &
1#
#1780000
0#
#1790000
b1011 &
1#
#1800000
0#
#1810000
b1100 &
1#
#1820000
0#
#1830000
b1101 &
1#
#1840000
0#
#1850000
b1110 &
1#
#1860000
0#
#1870000
b1111 &
1#
#1880000
0#
#1890000
b10000 &
1#
#1900000
0#
#1910000
b10001 &
1#
#1920000
0#
#1930000
b10010 &
1#
#1940000
0#
#1950000
b10011 &
1#
#1960000
0#
#1970000
b10100 &
1#
#1980000
0#
#1990000
b10101 &
1#
#2000000
0#
#2010000
b10110 &
1#
#2020000
0#
#2030000
b10111 &
1#
#2040000
0#
#2050000
b11000 &
1#
#2060000
0#
#2070000
b11001 &
1#
#2080000
0#
#2090000
0J
0"
b1111 h
0R
b1111 I
1C
b111 4
b111 U
0D
0K
b11 p
1=
0F
0M
b11 ;
b1101 t
b11 2
b11 Q
1?
0G
b0 l
09
b1101 B
b111111010011 5
b0 P
b0 1
b0 T
0N
b1101 :
b1001 7
b0 L
b111 q
b1110 A
b1110 >
b11 E
b111 H
b101 O
b1101 u
b1011 i
b101101111010111 !
b101101111010111 /
b101 m
b1101 X
b1001 Y
b0 e
b1110 \
b1110 ]
b1111101001 3
b11 a
b111 `
b101011111101101 0
b101 d
b1001 W
b1110 [
b11 _
b0 c
b1001 o
b1110 s
b11 g
b0 k
b1110 Z
b111 ^
b101 b
b1110 r
b111 f
b101 j
b101 '
b0 %
b1111101001 *
b1111101001 .
b101011111101101 )
b101011111101101 -
b0 &
1#
1+
#2100000
0#
#2110000
b1 &
b101101111010111 %
1#
0+
#2120000
0#
#2130000
b10 &
1#
#2140000
0#
#2150000
b11 &
1#
#2160000
0#
#2170000
b100 &
1#
#2180000
0#
#2190000
b101 &
b101 ,
1#
#2200000
0#
#2210000
b110 &
1#
#2220000
0#
#2230000
b111 &
1#
#2240000
0#
#2250000
b1000 &
1#
#2260000
0#
#2270000
b1001 &
1#
#2280000
0#
#2290000
b1010 &
1#
#2300000
0#
#2310000
b1011 &
1#
#2320000
0#
#2330000
b1100 &
1#
#2340000
0#
#2350000
b1101 &
1#
#2360000
0#
#2370000
b1110 &
1#
#2380000
0#
#2390000
b1111 &
1#
#2400000
0#
#2410000
b10000 &
1#
#2420000
0#
#2430000
b10001 &
1#
#2440000
0#
#2450000
b10010 &
1#
#2460000
0#
#2470000
b10011 &
1#
#2480000
0#
#2490000
b10100 &
1#
#2500000
0#
#2510000
b10101 &
1#
#2520000
0#
#2530000
b10110 &
1#
#2540000
0#
#2550000
b10111 &
1#
#2560000
0#
#2570000
b11000 &
1#
#2580000
0#
#2590000
b11001 &
1#
#2600000
0#
#2610000
0<
06
b10 2
b10 Q
08
b0 t
b1 h
09
b0 B
b1 I
b10 1
b10 T
1@
b1111 A
b1101 q
b110 7
b111 :
b1000 >
b1110 H
b0 E
b110 O
b111 u
b1111 i
b110111101111101 !
b110111101111101 /
b110 m
b1111 \
b110 Y
b111 X
b1000 ]
b1110 `
b10000110 3
b0 a
b110111011110111 0
b110 d
b1100 p
b111 W
b1011 [
b1010 _
b100 c
b111 o
b1011 s
b1010 g
b100 k
b110 V
b1100 Z
b100 ^
b10 b
b110 n
b1100 r
b100 f
b10 j
b110 '
b0 %
b100001100 5
b1100 ;
b100 4
b100 U
0$
b100101010110111 *
b100101010110111 .
b10010011000110 )
b10010011000110 -
b0 &
1#
1+
#2620000
0#
#2630000
b1 &
b110111101111101 %
1#
0+
#2640000
0#
#2650000
b10 &
1#
#2660000
0#
#2670000
b11 &
1#
#2680000
0#
#2690000
b100 &
1#
#2700000
0#
#2710000
b101 &
b110 ,
1#
#2720000
0#
#2730000
b110 &
1#
#2740000
0#
#2750000
b111 &
1#
#2760000
0#
#2770000
b1000 &
1#
#2780000
0#
#2790000
b1001 &
1#
#2800000
0#
#2810000
b1010 &
1#
#2820000
0#
#2830000
b1011 &
1#
#2840000
0#
#2850000
b1100 &
1#
#2860000
0#
#2870000
b1101 &
1#
#2880000
0#
#2890000
b1110 &
1#
#2900000
0#
#2910000
b1111 &
1#
#2920000
0#
#2930000
b10000 &
1#
#2940000
0#
#2950000
b10001 &
1#
#2960000
0#
#2970000
b10010 &
1#
#2980000
0#
#2990000
b10011 &
1#
#3000000
0#
#3010000
b10100 &
1#
#3020000
0#
#3030000
b10101 &
1#
#3040000
0#
#3050000
b10110 &
1#
#3060000
0#
#3070000
b10111 &
1#
#3080000
0#
#3090000
b11000 &
1#
#3100000
0#
#3110000
b11001 &
1#
#3120000
0#
#3130000
b1111 t
1"
b1111 B
1<
1C
1J
1R
1S
b1110 4
b1110 U
16
18
1=
1K
19
0?
b1000 p
1D
1F
b1111 h
b1101 2
b1101 Q
1M
b1111 l
1N
b1000 ;
b1111 I
b1111111111111000 5
b1111 P
b1111 1
b1111 T
1G
b1111 :
b0 >
b0 u
b100 7
b1111 H
b10 E
b110 L
b1111 O
b11 q
b10 i
b110001000000011 !
b110001000000011 /
b110 m
b1111 X
b0 ]
b100 Y
b1111 `
b10 a
b110001000000100 3
b110 e
b1111111111111111 0
b1111 d
b1110 W
b1 [
b110 c
b1110 o
b1 s
b110 k
b101 V
b1110 Z
b111 ^
b1111 b
b101 n
b1110 r
b111 f
b1111 j
b111 '
b0 %
b110101000011110 *
b110101000011110 .
b1111011111100101 )
b1111011111100101 -
b0 &
1#
1+
#3140000
0#
#3150000
b1 &
b10110001000000011 %
1#
0+
#3160000
0#
#3170000
b10 &
1#
#3180000
0#
#3190000
b11 &
1#
#3200000
0#
#3210000
b100 &
1#
#3220000
0#
#3230000
b101 &
b111 ,
1#
#3240000
0#
#3250000
b110 &
1#
#3260000
0#
#3270000
b111 &
1#
#3280000
0#
#3290000
b1000 &
1#
#3300000
0#
#3310000
b1001 &
1#
#3320000
0#
#3330000
b1010 &
1#
#3340000
0#
#3350000
b1011 &
1#
#3360000
0#
#3370000
b1100 &
1#
#3380000
0#
#3390000
b1101 &
1#
#3400000
0#
#3410000
b1110 &
1#
#3420000
0#
#3430000
b1111 &
1#
#3440000
0#
#3450000
b10000 &
1#
#3460000
0#
#3470000
b10001 &
1#
#3480000
0#
#3490000
b10010 &
1#
#3500000
0#
#3510000
b10011 &
1#
#3520000
0#
#3530000
b10100 &
1#
#3540000
0#
#3550000
b10101 &
1#
#3560000
0#
#3570000
b10110 &
1#
#3580000
0#
#3590000
b10111 &
1#
#3600000
0#
#3610000
b11000 &
1#
#3620000
0#
#3630000
b11001 &
1#
#3640000
0#
#3650000
b0 h
b0 I
0C
b1010 4
b1010 U
0S
b11 t
0=
b11 B
b1011 l
0@
b1011000000111000 5
b1011 P
b101 1
b101 T
0N
b11 m
b1101 A
b1000 E
b101 L
b1101 O
b1110 u
b11011111100011 !
b11011111100011 /
b111 i
b1101 \
b1000 a
b101100000000100 3
b101 e
b1101111111011111 0
b1101 d
b100 W
b101 [
b1100 _
b101 c
b100 o
b101 s
b1100 g
b101 k
b1111 V
b1000 Z
b1011 ^
b1101 b
b1111 n
b1000 r
b1011 f
b1101 j
b1000 '
b0 %
b101110001010100 *
b101110001010100 .
b1101101110001111 )
b1101101110001111 -
b0 &
1#
1+
#3660000
0#
#3670000
b1 &
b10011011111100011 %
1#
0+
#3680000
0#
#3690000
b10 &
1#
#3700000
0#
#3710000
b11 &
1#
#3720000
0#
#3730000
b100 &
1#
#3740000
0#
#3750000
b101 &
b1000 ,
1#
#3760000
0#
#3770000
b110 &
1#
#3780000
0#
#3790000
b111 &
1#
#3800000
0#
#3810000
b1000 &
1#
#3820000
0#
#3830000
b1001 &
1#
#3840000
0#
#3850000
b1010 &
1#
#3860000
0#
#3870000
b1011 &
1#
#3880000
0#
#3890000
b1100 &
1#
#3900000
0#
#3910000
b1101 &
1#
#3920000
0#
#3930000
b1110 &
1#
#3940000
0#
#3950000
b1111 &
1#
#3960000
0#
#3970000
b10000 &
1#
#3980000
0#
#3990000
b10001 &
1#
#4000000
0#
#4010000
b10010 &
1#
#4020000
0#
#4030000
b10011 &
1#
#4040000
0#
#4050000
b10100 &
1#
#4060000
0#
#4070000
b10101 &
1#
#4080000
0#
#4090000
b10110 &
1#
#4100000
0#
#4110000
b10111 &
1#
#4120000
0#
#4130000
b11000 &
1#
#4140000
0#
#4150000
b11001 &
1#
#4160000
0#
#4170000
0"
0J
b1 h
0R
b1 I
1C
b110 4
b110 U
0K
0D
b0 p
1=
1?
b1111 t
0M
b1110 l
b11 2
b11 Q
0F
b0 ;
b1111 B
b1110000111110000 5
b1110 P
09
1@
0N
b10 1
b10 T
0G
b0 E
b1 L
b1101 :
b1000 7
b1111 A
b100 >
b1110 H
b111 O
b101 q
b100 u
b1111 i
b1000111101000101 !
b1000111101000101 /
b1000 m
b0 a
b1 e
b1101 X
b1000 Y
b1111 \
b1000001001000 3
b100 ]
b1110 `
b111111011111101 0
b111 d
b1101 W
b100 _
b1 c
b1101 o
b100 g
b1 k
b1000 V
b1110 Z
b1010 ^
b111 b
b1000 n
b1110 r
b1010 f
b111 j
b1001 '
b0 %
b1010001011101 *
b1010001011101 .
b111101011101000 )
b111101011101000 -
b0 &
1#
1+
#4180000
0#
#4190000
b1 &
b1000111101000101 %
1#
0+
#4200000
0#
#4210000
b10 &
1#
#4220000
0#
#4230000
b11 &
1#
#4240000
0#
#4250000
b100 &
1#
#4260000
0#
#4270000
b101 &
b1001 ,
1#
#4280000
0#
#4290000
b110 &
1#
#4300000
0#
#4310000
b111 &
1#
#4320000
0#
#4330000
b1000 &
1#
#4340000
0#
#4350000
b1001 &
1#
#4360000
0#
#4370000
b1010 &
1#
#4380000
0#
#4390000
b1011 &
1#
#4400000
0#
#4410000
b1100 &
1#
#4420000
0#
#4430000
b1101 &
1#
#4440000
0#
#4450000
b1110 &
1#
#4460000
0#
#4470000
b1111 &
1#
#4480000
0#
#4490000
b10000 &
1#
#4500000
0#
#4510000
b10001 &
1#
#4520000
0#
#4530000
b10010 &
1#
#4540000
0#
#4550000
b10011 &
1#
#4560000
0#
#4570000
b10100 &
1#
#4580000
0#
#4590000
b10101 &
1#
#4600000
0#
#4610000
b10110 &
1#
#4620000
0#
#4630000
b10111 &
1#
#4640000
0#
#4650000
b11000 &
1#
#4660000
0#
#4670000
b11001 &
1#
#4680000
0#
#4690000
0J
b111 t
b111 B
0@
b11 h
0D
19
b11 I
b0 l
b1 1
b1 T
0G
b0 P
b1111 :
b100 u
b100 7
b1000 >
b1011 A
b1101 H
b0 L
b10 O
b1110 i
b10 m
b10111001000100 !
b10111001000100 /
b100 q
b1111 X
b100 Y
b1000 ]
b1011 \
b1101 `
b10000100 3
b0 e
b10110110111111 0
b10 d
b1111 p
b110 W
b1000 [
b101 _
b0 c
b110 o
b1000 s
b101 g
b0 k
b1101 V
b1011 Z
b1000 ^
b10 b
b1101 n
b1011 r
b1000 f
b10 j
b1010 '
b0 %
b1101111111 5
b1111 ;
b111 4
b111 U
1$
b10110000110 *
b10110000110 .
b10100010111101 )
b10100010111101 -
b0 &
1#
1+
#4700000
0#
#4710000
b1 &
b10111001000100 %
1#
0+
#4720000
0#
#4730000
b10 &
1#
#4740000
0#
#4750000
b11 &
1#
#4760000
0#
#4770000
b100 &
1#
#4780000
0#
#4790000
b101 &
b1010 ,
1#
#4800000
0#
#4810000
b110 &
1#
#4820000
0#
#4830000
b111 &
1#
#4840000
0#
#4850000
b1000 &
1#
#4860000
0#
#4870000
b1001 &
1#
#4880000
0#
#4890000
b1010 &
1#
#4900000
0#
#4910000
b1011 &
1#
#4920000
0#
#4930000
b1100 &
1#
#4940000
0#
#4950000
b1101 &
1#
#4960000
0#
#4970000
b1110 &
1#
#4980000
0#
#4990000
b1111 &
1#
#5000000
0#
#5010000
b10000 &
1#
#5020000
0#
#5030000
b10001 &
1#
#5040000
0#
#5050000
b10010 &
1#
#5060000
0#
#5070000
b10011 &
1#
#5080000
0#
#5090000
b10100 &
1#
#5100000
0#
#5110000
b10101 &
1#
#5120000
0#
#5130000
b10110 &
1#
#5140000
0#
#5150000
b10111 &
1#
#5160000
0#
#5170000
b11000 &
1#
#5180000
0#
#5190000
b11001 &
1#
#5200000
0#
#5210000
b0 l
b0 P
0J
0<
06
b10 2
b10 Q
08
b1100 t
b111 h
0D
09
1@
b1100 B
b111 I
b10 1
b10 T
0G
b1 7
b11 :
b1111 A
b110 >
b11 H
b111 O
b100 q
b101 u
b100 i
b111010001010100 !
b111010001010100 /
b111 m
b1 Y
b11 X
b1111 \
b1100001 3
b110 ]
b11 `
b111001111110011 0
b111 d
b110 p
b1 W
b1111 [
b1 _
b1 c
b1 o
b1111 s
b1 g
b1 k
b11 V
b110 Z
b10 ^
b110 b
b11 n
b110 r
b10 f
b110 j
b1011 '
b0 %
b11111000110 5
b110 ;
b100 4
b100 U
0$
b1000111110001 *
b1000111110001 .
b110001001100011 )
b110001001100011 -
b0 &
1#
1+
#5220000
0#
#5230000
b1 &
b111010001010100 %
1#
0+
#5240000
0#
#5250000
b10 &
1#
#5260000
0#
#5270000
b11 &
1#
#5280000
0#
#5290000
b100 &
1#
#5300000
0#
#5310000
b101 &
b1011 ,
1#
#5320000
0#
#5330000
b110 &
1#
#5340000
0#
#5350000
b111 &
1#
#5360000
0#
#5370000
b1000 &
1#
#5380000
0#
#5390000
b1001 &
1#
#5400000
0#
#5410000
b1010 &
1#
#5420000
0#
#5430000
b1011 &
1#
#5440000
0#
#5450000
b1100 &
1#
#5460000
0#
#5470000
b1101 &
1#
#5480000
0#
#5490000
b1110 &
1#
#5500000
0#
#5510000
b1111 &
1#
#5520000
0#
#5530000
b10000 &
1#
#5540000
0#
#5550000
b10001 &
1#
#5560000
0#
#5570000
b10010 &
1#
#5580000
0#
#5590000
b10011 &
1#
#5600000
0#
#5610000
b10100 &
1#
#5620000
0#
#5630000
b10101 &
1#
#5640000
0#
#5650000
b10110 &
1#
#5660000
0#
#5670000
b10111 &
1#
#5680000
0#
#5690000
b11000 &
1#
#5700000
0#
#5710000
b11001 &
1#
#5720000
0#
#5730000
0C
0=
b0 2
b0 Q
0?
b0 h
b1100 l
b0 t
b0 1
b0 T
0@
b0 I
b1100 P
b0 B
b1011 :
b10 L
b1100 q
b1011 u
b1001 m
b0 7
b0 >
b1011 A
b1 H
b1001000110111100 !
b1001000110111100 /
b1 i
b1011 X
b10 e
b0 Y
b10000000000000 3
b0 ]
b1011 \
b111000110111011 0
b1 `
b111 p
b1011 W
b1001 [
b0 _
b111 c
b1011 o
b1001 s
b0 g
b111 k
b0 V
b10 Z
b1 ^
b10 b
b0 n
b10 r
b1 f
b10 j
b1100 '
b0 %
b1100000000000111 5
b111 ;
b1 4
b1 U
1$
b111000010011011 *
b111000010011011 .
b10000100100000 )
b10000100100000 -
b0 &
1#
1+
#5740000
0#
#5750000
b1 &
b1001000110111100 %
1#
0+
#5760000
0#
#5770000
b10 &
1#
#5780000
0#
#5790000
b11 &
1#
#5800000
0#
#5810000
b100 &
1#
#5820000
0#
#5830000
b101 &
b1100 ,
1#
#5840000
0#
#5850000
b110 &
1#
#5860000
0#
#5870000
b111 &
1#
#5880000
0#
#5890000
b1000 &
1#
#5900000
0#
#5910000
b1001 &
1#
#5920000
0#
#5930000
b1010 &
1#
#5940000
0#
#5950000
b1011 &
1#
#5960000
0#
#5970000
b1100 &
1#
#5980000
0#
#5990000
b1101 &
1#
#6000000
0#
#6010000
b1110 &
1#
#6020000
0#
#6030000
b1111 &
1#
#6040000
0#
#6050000
b10000 &
1#
#6060000
0#
#6070000
b10001 &
1#
#6080000
0#
#6090000
b10010 &
1#
#6100000
0#
#6110000
b10011 &
1#
#6120000
0#
#6130000
b10100 &
1#
#6140000
0#
#6150000
b10101 &
1#
#6160000
0#
#6170000
b10110 &
1#
#6180000
0#
#6190000
b10111 &
1#
#6200000
0#
#6210000
b11000 &
1#
#6220000
0#
#6230000
b11001 &
1#
#6240000
0#
#6250000
1J
1<
b1011 4
b1011 U
16
18
1D
b1111 l
b1001 p
b101 2
b101 Q
1F
b1100 h
b100 1
b100 T
1G
b1111 P
b1001 ;
b11 t
b1100 I
b1111110000111001 5
b11 B
b0 L
b11 q
b1000 m
b100 7
b1110 :
b1 >
b1001 A
b1010 E
b1111 H
b1011 u
b1000100110110011 !
b1000100110110011 /
b1001 i
b0 e
b100 Y
b1110 X
b1 ]
b1001 \
b101000010100 3
b1010 a
b111111110011110 0
b1111 `
b1100 W
b1 [
b1011 _
b100 c
b1100 o
b1 s
b1011 g
b100 k
b110 V
b1001 Z
b1110 ^
b11 b
b110 n
b1001 r
b1110 f
b11 j
b1101 '
b0 %
b100101100011100 *
b100101100011100 .
b11111010010110 )
b11111010010110 -
b0 &
1#
1+
#6260000
0#
#6270000
b1 &
b1000100110110011 %
1#
0+
#6280000
0#
#6290000
b10 &
1#
#6300000
0#
#6310000
b11 &
1#
#6320000
0#
#6330000
b100 &
1#
#6340000
0#
#6350000
b101 &
b1101 ,
1#
#6360000
0#
#6370000
b110 &
1#
#6380000
0#
#6390000
b111 &
1#
#6400000
0#
#6410000
b1000 &
1#
#6420000
0#
#6430000
b1001 &
1#
#6440000
0#
#6450000
b1010 &
1#
#6460000
0#
#6470000
b1011 &
1#
#6480000
0#
#6490000
b1100 &
1#
#6500000
0#
#6510000
b1101 &
1#
#6520000
0#
#6530000
b1110 &
1#
#6540000
0#
#6550000
b1111 &
1#
#6560000
0#
#6570000
b10000 &
1#
#6580000
0#
#6590000
b10001 &
1#
#6600000
0#
#6610000
b10010 &
1#
#6620000
0#
#6630000
b10011 &
1#
#6640000
0#
#6650000
b10100 &
1#
#6660000
0#
#6670000
b10101 &
1#
#6680000
0#
#6690000
b10110 &
1#
#6700000
0#
#6710000
b10111 &
1#
#6720000
0#
#6730000
b11000 &
1#
#6740000
0#
#6750000
b11001 &
1#
#6760000
0#
#6770000
1"
0C
0J
1R
0<
b1 4
b1 U
06
0=
1K
08
b0 t
0D
1M
b1000 l
1@
b0 B
b1000 2
b1000 Q
0F
b0 h
b1000 P
b111 p
b0 I
0G
b1000000000000111 5
b111 ;
b10 1
b10 T
09
b0 >
b1110 H
b1111 q
b11 7
b1011 :
b1111 A
b0 E
b100 L
b1101 O
b1111 u
b1110 i
b1111011111111 !
b1111011111111 /
b1 m
b0 ]
b1110 `
b11 Y
b1011 X
b1111 \
b0 a
b100000000000011 3
b100 e
b1101111011111011 0
b1101 d
b1011 W
b1010 [
b1000 _
b1011 o
b1010 s
b1000 g
b11 V
b101 Z
b110 ^
b1101 b
b11 n
b101 r
b110 f
b1101 j
b1110 '
b0 %
b100100010101011 *
b100100010101011 .
b1101011001010011 )
b1101011001010011 -
b0 &
1#
1+
#6780000
0#
#6790000
b1 &
b10001111011111111 %
1#
0+
#6800000
0#
#6810000
b10 &
1#
#6820000
0#
#6830000
b11 &
1#
#6840000
0#
#6850000
b100 &
1#
#6860000
0#
#6870000
b101 &
b1110 ,
1#
#6880000
0#
